test_run_dir/Vending_machine_test_should_pass/VendingMachine.vcd
$date
2024-05-23T10:45+0000
$end
$version
0.2
$end
$comment

$end
$timescale 1ns  $end
$scope module VendingMachine $end
 $var wire 4 ! io_an $end
 $var wire 1 % datapath $end
 $var wire 1 ' io_nextItem $end
 $var wire 7 0 io_seg $end
 $var wire 1 9 setPrice_sync $end
 $var wire 1 ? fsm $end
 $var wire 1 L sevSegController $end
 $var wire 1 X io_coin5 $end
 $var wire 1 Y io_coin2 $end
 $var wire 1 \ clock $end
 $var wire 1 m buy_sync $end
 $var wire 1 v coin5_sync $end
 $var wire 1 "V io_buy $end
 $var wire 1 #' nextItem_sync $end
 $var wire 1 #( io_alarm $end
 $var wire 1 #) io_releaseCan $end
 $var wire 1 #* reset $end
 $var wire 1 #- coin2_sync $end
 $var wire 5 #/ io_price $end
 $var wire 1 #5 io_setPrice $end
  $scope module datapath $end
   $var wire 2 & priceAddr $end
   $var wire 2 * priceMem_price_MPORT_addr_pipe_0 $end
   $var wire 5 : io_price $end
   $var wire 1 < io_setPrice $end
   $var wire 1 @ io_add5 $end
   $var wire 1 A io_add2 $end
   $var wire 1 K reset $end
   $var wire 8 w io_sum $end
   $var wire 5 x io_activePrice $end
   $var wire 1 "2 io_enoughMoney $end
   $var wire 5 "4 priceMem $end
   $var wire 8 "B sum $end
   $var wire 5 "O price $end
   $var wire 1 "Q io_purchase $end
   $var wire 1 #& clock $end
   $var wire 1 #0 priceMem_price_MPORT_en_pipe_0 $end
   $var wire 1 #9 io_cycle $end
    $scope module priceMem $end
     $var wire 5 W MPORT $end
      $scope module price_MPORT $end
       $var wire 2 , addr $end
       $var wire 5 4 data $end
       $var wire 1 ] clk $end
       $var wire 1 #. en $end
      $upscope $end
      $scope module MPORT $end
       $var wire 1 / clk $end
       $var wire 1 3 mask $end
       $var wire 1 7 pipeline_valid_0 $end
       $var wire 2 = addr $end
       $var wire 5 J data $end
       $var wire 2 o pipeline_addr_0 $end
       $var wire 1 "t valid $end
       $var wire 5 #2 pipeline_data_0 $end
       $var wire 1 #: en $end
      $upscope $end
    $upscope $end
  $upscope $end
  $scope module fsm $end
   $var wire 1 $ io_nextItem $end
   $var wire 1 ( io_add5 $end
   $var wire 1 ) io_add2 $end
   $var wire 1 1 REG $end
   $var wire 1 8 io_idleScreen $end
   $var wire 1 n io_buy $end
   $var wire 1 "1 io_coin2 $end
   $var wire 1 "; io_coin5 $end
   $var wire 1 "> io_releaseCan $end
   $var wire 1 "C REG_2 $end
   $var wire 1 "D REG_1 $end
   $var wire 1 "E REG_3 $end
   $var wire 1 "F clock $end
   $var wire 1 "R io_enoughMoney $end
   $var wire 3 "T stateReg $end
   $var wire 1 "| io_purchase $end
   $var wire 1 #$ io_alarm $end
   $var wire 1 #, reset $end
   $var wire 1 #3 io_cycle $end
  $upscope $end
  $scope module sevSegController $end
   $var wire 1 " sevSegChar $end
   $var wire 32 # txtCounter $end
   $var wire 1 - init $end
   $var wire 32 . alarmCounter $end
   $var wire 1 2 io_idleScreen $end
   $var wire 1 6 io_alarm $end
   $var wire 17 ; counter $end
   $var wire 5 > text_0 $end
   $var wire 5 B text_15 $end
   $var wire 5 C text_14 $end
   $var wire 5 D text_17 $end
   $var wire 5 E text_16 $end
   $var wire 5 F text_11 $end
   $var wire 5 G text_10 $end
   $var wire 5 H text_13 $end
   $var wire 5 I text_12 $end
   $var wire 5 M text_9 $end
   $var wire 5 N text_7 $end
   $var wire 1 O reset $end
   $var wire 5 P text_8 $end
   $var wire 5 Q text_5 $end
   $var wire 5 R text_6 $end
   $var wire 5 S text_3 $end
   $var wire 5 T text_4 $end
   $var wire 5 U text_1 $end
   $var wire 5 V text_2 $end
   $var wire 8 [ io_sum $end
   $var wire 1 y alarmSelect $end
   $var wire 4 "] io_an $end
   $var wire 8 #% io_price $end
   $var wire 1 #+ sevSegNum $end
   $var wire 1 #1 clock $end
   $var wire 2 #4 segSelect $end
   $var wire 7 #6 io_seg $end
   $var wire 5 #7 txtSelect $end
   $var wire 1 #8 bcd $end
    $scope module bcd $end
     $var wire 8 + io_address $end
     $var wire 8 5 io_data $end
     $var wire 8 ^ table_9 $end
     $var wire 8 _ table_5 $end
     $var wire 8 ` table_6 $end
     $var wire 8 b table_7 $end
     $var wire 8 c table_8 $end
     $var wire 8 d table_12 $end
     $var wire 8 e table_1 $end
     $var wire 8 f table_13 $end
     $var wire 8 g table_2 $end
     $var wire 8 h table_10 $end
     $var wire 8 i table_3 $end
     $var wire 8 j table_11 $end
     $var wire 8 k table_4 $end
     $var wire 8 l table_0 $end
     $var wire 8 p table_29 $end
     $var wire 8 q table_27 $end
     $var wire 8 r table_28 $end
     $var wire 8 s table_25 $end
     $var wire 8 u table_26 $end
     $var wire 8 z table_34 $end
     $var wire 8 { table_35 $end
     $var wire 8 | table_32 $end
     $var wire 8 } table_33 $end
     $var wire 8 ~ table_30 $end
     $var wire 8 "! table_31 $end
     $var wire 8 "# table_18 $end
     $var wire 8 "$ table_19 $end
     $var wire 8 "% table_16 $end
     $var wire 8 "& table_17 $end
     $var wire 8 "' table_14 $end
     $var wire 8 "( table_15 $end
     $var wire 8 ") table_23 $end
     $var wire 8 "* table_24 $end
     $var wire 8 "+ table_21 $end
     $var wire 8 ", table_22 $end
     $var wire 8 "- table_20 $end
     $var wire 8 ". table_49 $end
     $var wire 8 "/ table_47 $end
     $var wire 8 "0 table_48 $end
     $var wire 8 "3 table_56 $end
     $var wire 8 "5 table_57 $end
     $var wire 8 "6 table_54 $end
     $var wire 8 "7 table_55 $end
     $var wire 8 "8 table_52 $end
     $var wire 8 "9 table_53 $end
     $var wire 8 ": table_50 $end
     $var wire 8 "< table_51 $end
     $var wire 8 "= table_38 $end
     $var wire 8 "? table_39 $end
     $var wire 8 "@ table_36 $end
     $var wire 8 "A table_37 $end
     $var wire 8 "G table_45 $end
     $var wire 8 "H table_46 $end
     $var wire 8 "I table_43 $end
     $var wire 8 "J table_44 $end
     $var wire 8 "K table_41 $end
     $var wire 8 "L table_42 $end
     $var wire 8 "M table_40 $end
     $var wire 8 "N table_69 $end
     $var wire 8 "P table_70 $end
     $var wire 8 "S table_71 $end
     $var wire 8 "U table_78 $end
     $var wire 8 "W table_79 $end
     $var wire 8 "X table_76 $end
     $var wire 8 "Y table_77 $end
     $var wire 8 "Z table_74 $end
     $var wire 8 "[ table_75 $end
     $var wire 8 "\ table_72 $end
     $var wire 8 "^ table_73 $end
     $var wire 8 "_ table_58 $end
     $var wire 8 "` table_59 $end
     $var wire 8 "a table_60 $end
     $var wire 8 "b table_67 $end
     $var wire 8 "c table_68 $end
     $var wire 8 "d table_65 $end
     $var wire 8 "e table_66 $end
     $var wire 8 "f table_63 $end
     $var wire 8 "g table_64 $end
     $var wire 8 "h table_61 $end
     $var wire 8 "i table_62 $end
     $var wire 8 "k table_92 $end
     $var wire 8 "l table_93 $end
     $var wire 8 "m table_90 $end
     $var wire 8 "n table_91 $end
     $var wire 8 "o table_98 $end
     $var wire 8 "p table_99 $end
     $var wire 8 "q table_96 $end
     $var wire 8 "r table_97 $end
     $var wire 8 "s table_94 $end
     $var wire 8 "u table_95 $end
     $var wire 8 "w table_81 $end
     $var wire 8 "x table_82 $end
     $var wire 8 "y table_80 $end
     $var wire 8 "z table_89 $end
     $var wire 8 "{ table_87 $end
     $var wire 8 "} table_88 $end
     $var wire 8 "~ table_85 $end
     $var wire 8 #! table_86 $end
     $var wire 8 #" table_83 $end
     $var wire 8 ## table_84 $end
    $upscope $end
    $scope module sevSegNum $end
     $var wire 4 Z io_in $end
     $var wire 7 a io_out $end
     $var wire 7 "j sevSeg $end
    $upscope $end
    $scope module sevSegChar $end
     $var wire 7 t io_out $end
     $var wire 7 "" sevSeg $end
     $var wire 5 "v io_in $end
    $upscope $end
  $upscope $end
  $scope module sevSegController.sevSegNum $end
  $upscope $end
  $scope module sevSegController.sevSegChar $end
  $upscope $end
  $scope module sevSegController.bcd $end
  $upscope $end
$upscope $end
$enddefinitions $end
$dumpvars
b00000000 k
01
b00000000 j
02
b00000000 l
b00 =
b00000000 g
b00000000 f
06
b00000000 i
07
b00000000 h
08
b00000000 c
b00000000000000000000000000000000 #
09
b00000000 b
b00000000 e
b00000000 d
0<
b00000000 _
b00000000 ^
0?
b00000000 `
0@
b00000000 {
0A
b00000000 z
b00000000 }
b00 &
b00000000 |
b00000000 w
b00 ,
b00 *
b00000000 s
b00000000 r
b00000000 u
0K
0L
b00000000000000000000000000000000 .
b00000000 q
0O
b00000000 p
13
b0000 !
0X
0Y
0\
0]
b00000000 [
b00000000000000000 ;
0m
0n
b0000000 ""
0v
0y
b0000000 #6
b00000000 ~
b0000000 "j
0"1
0"2
b00000000 "g
b00000000 "f
b00000000 "e
b00000000 "d
b00000000 "k
b00000000 "i
b00000 "O
b00000000 "h
b00000 #/
b00000000 "o
0";
b00000000 "n
b00000000 "m
b00000000 "l
0">
b00000000 "s
b00000000 "r
b00000000 "q
b00000000 "p
b00000000 "w
0"C
0#$
0"D
b00000000 "u
0"E
0#&
0"F
0#'
b00000000 "{
0#(
b00000000 "z
0#)
b00000000 "y
0#*
b00000000 "x
0#+
0#,
b00000000 "~
b00 #4
0#-
b00000000 "}
0#.
b0000000 t
0#0
b00000 "4
0#1
0"Q
0"R
0#3
0#5
0"V
0#8
0#9
0#:
b0000000 a
0"t
0"|
b00 o
b00000 "v
b0000000 0
b00000 #2
b00000 #7
b00000000 "#
b00000000 "!
b00000000 "'
b00000000 "&
b00000000 "%
b00000000 "$
b00000000 "+
b00000000 "*
b00000000 ")
b00000000 "(
b00000000 "/
b00000000 ".
b00000000 "-
b00000000 ",
b00000000 "3
b00000000 "0
b00000000 "7
b00000000 "6
b00000000 "5
b00000000 ":
b00000000 "9
b00000000 "8
b00000000 "?
b00000000 "=
b00000000 "<
b00000000 "B
b00000000 ##
b00000000 "A
b00000000 #"
b00000000 "@
b00000000 #!
b00000000 "G
b00000000 #%
b00000000 "K
b00000000 "J
b00000000 "I
b00000000 "H
b00000000 "N
b00000000 "M
b00000000 "L
b00000000 "S
b00000000 "P
b00000000 "W
b00000000 "U
b00000000 "[
b00000000 "Z
b00000000 "Y
b00000000 "X
b00000000 "_
b00000000 "^
b00000000 "\
b00000000 "c
b00000000 "b
b00000000 "a
b00000000 "`
b000 "T
b00000 4
b00000 :
b00000 >
b00000 C
b00000 B
b00000 E
b00000 D
b00000 G
b00000 F
b00000 I
b00000 H
b00000 J
b00000 M
b00000 N
b00000 Q
b00000 P
b00000 S
b00000000 +
b00000 R
b00000 U
b00000 T
b00000 W
b00000 V
b0000 Z
b00000000 5
b00000 x
0"
0$
0%
0'
0(
b0000 "]
0)
0-
0/
$end
#0
b1110 !
b1111111 0
b00101 >
b00110001 "!
b1011110 ""
b00011000 "#
b01110 B
b00011001 "$
b00101 C
b00010110 "%
b00011 D
b00010111 "&
b01110 E
b00010100 "'
b11010 F
b00010101 "(
b11010 G
b00100011 ")
b11010 H
b00100100 "*
b11010 I
b00100001 "+
b00100010 ",
1K
b00100000 "-
b01001001 ".
b01000111 "/
b01110 N
b01001000 "0
1O
b00011 P
1"2
b11010 Q
b01010110 "3
b10010 R
b00011 S
b01010111 "5
b11010 T
b01010100 "6
b01110 U
b01010101 "7
b01110 V
b01010010 "8
b01010011 "9
b01010000 ":
b01010001 "<
b00111000 "=
b00111001 "?
b00001001 ^
b00110110 "@
b10000110 #!
b00000101 _
b00110111 "A
b10000011 #"
b00000110 `
b10000100 ##
b0111111 a
b00000111 b
b00001000 c
b00010010 d
b00000001 e
b01000101 "G
b00010011 f
b01000110 "H
b00000010 g
1#*
b01000011 "I
b00010000 h
b01000100 "J
b00000011 i
b01000001 "K
1#,
b00010001 j
b01000010 "L
b00000100 k
b01000000 "M
b01101001 "N
b01110000 "P
b00101001 p
1"R
b00100111 q
b01110001 "S
b00101000 r
b00100101 s
b01111000 "U
b1111111 #6
b1011110 t
b00100110 u
b01111001 "W
b01110110 "X
b01110111 "Y
b01110100 "Z
b01110101 "[
b00110100 z
b01110010 "\
b00110101 {
b1110 "]
b00110010 |
b01110011 "^
b00110011 }
b01011000 "_
b00110000 ~
b01011001 "`
b01100000 "a
b01100111 "b
b01101000 "c
b01100101 "d
b01100110 "e
b01100011 "f
b01100100 "g
b01100001 "h
b01100010 "i
b0111111 "j
b10010010 "k
b10010011 "l
b10010000 "m
b10010001 "n
b10011000 "o
b10011001 "p
b10010110 "q
b10010111 "r
b10010100 "s
b10010101 "u
b00011 "v
b10000001 "w
b10000010 "x
b10000000 "y
b10001001 "z
b10000111 "{
b10001000 "}
b10000101 "~
#1
b0000 !
1#&
1"F
1#.
1-
1#0
1#1
1/
b0111111 0
12
b001 "T
b0111111 #6
18
b0000 "]
1\
1]
#6
0#&
0"F
0#*
0#,
b00111 J
0K
b00111 #/
0#1
0/
0O
b00111 :
0\
0]
#11
b1110 !
b00000000000000000000000000000001 #
1#&
1"F
0-
b00000000000000000000000000000001 .
1#1
1/
b00111 #2
b0100001 0
b0100001 #6
b00000000000000001 ;
b1110 "]
1\
1]
#16
0#&
0"F
0\
0]
0#1
0/
#21
b00000000000000000000000000000010 #
1#&
1"F
b00000000000000010 ;
1\
1]
b00000000000000000000000000000010 .
1#1
1/
#26
0#&
0"F
0\
0]
0#1
0/
#31
b00000000000000000000000000000011 #
1#&
1"F
b00000000000000011 ;
1\
1]
b00000000000000000000000000000011 .
1#1
1/
#36
0#&
0"F
1Y
0\
0]
0#1
0/
#41
b00000000000000000000000000000100 #
1#&
1"F
1#-
b00000000000000100 ;
1\
1]
b00000000000000000000000000000100 .
1#1
1/
1"1
#46
0#&
0"F
0\
0]
0#1
0/
#51
b00000000000000000000000000000101 #
1#&
1"F
b00000000000000000000000000000101 .
1#1
1/
b1111111 0
11
02
b000 "T
b1111111 #6
08
b00000000000000101 ;
1\
1]
#56
0#&
0"F
0\
0]
0#1
0/
#61
b00000000000000000000000000000110 #
1#&
1"F
b00000000000000110 ;
1\
1]
b00000000000000000000000000000110 .
1#1
1/
#66
0#&
0"F
0Y
0\
0]
0#1
0/
#71
b00000000000000000000000000000111 #
1#&
1"F
0#-
b00000000000000111 ;
1\
1]
b00000000000000000000000000000111 .
1#1
1/
0"1
#76
0#&
0"F
0\
0]
0#1
0/
#81
01
b00000000000000000000000000001000 #
1#&
1"F
b00000000000001000 ;
1\
1]
b00000000000000000000000000001000 .
1#1
1/
#86
0#&
0"F
0\
0]
0#1
0/
#91
b00000000000000000000000000001001 #
1#&
1"F
b00000000000001001 ;
1\
1]
b00000000000000000000000000001001 .
1#1
1/
#96
0#&
0"F
0\
0]
0#1
0/
#101
b00000000000000000000000000001010 #
1#&
1"F
b00000000000001010 ;
1\
1]
b00000000000000000000000000001010 .
1#1
1/
#106
0#&
0"F
0\
0]
0#1
0/
#111
b00000000000000000000000000001011 #
1#&
1"F
b00000000000001011 ;
1\
1]
b00000000000000000000000000001011 .
1#1
1/
#116
0#&
0"F
0\
0]
0#1
0/
#121
b00000000000000000000000000001100 #
1#&
1"F
b00000000000001100 ;
1\
1]
b00000000000000000000000000001100 .
1#1
1/
#126
0#&
0"F
1X
0\
0]
0#1
0/
#131
b00000000000000000000000000001101 #
1#&
1"F
1v
1";
b00000000000001101 ;
1\
1]
b00000000000000000000000000001101 .
1#1
1/
#136
0#&
0"F
0\
0]
0#1
0/
#141
1@
1"D
b00000000000000000000000000001110 #
1#&
1"F
1(
b00000000000000000000000000001110 .
1#1
1/
b011 "T
b00000000000001110 ;
1\
1]
#146
0#&
0"F
0\
0]
0#1
0/
#151
0@
b00000101 "B
b00000000000000000000000000001111 #
1#&
1"F
0(
b00000000000000000000000000001111 .
1#1
1/
b000 "T
b00000101 w
b00000000000001111 ;
b00000101 [
1\
1]
#156
0#&
0"F
0X
0\
0]
0#1
0/
#161
b00000000000000000000000000010000 #
1#&
1"F
0v
0";
b00000000000010000 ;
1\
1]
b00000000000000000000000000010000 .
1#1
1/
#166
0#&
0"F
0\
0]
0#1
0/
#171
0"D
b00000000000000000000000000010001 #
1#&
1"F
b00000000000010001 ;
1\
1]
b00000000000000000000000000010001 .
1#1
1/
#176
0#&
0"F
0\
0]
0#1
0/
#181
b00000000000000000000000000010010 #
1#&
1"F
b00000000000010010 ;
1\
1]
b00000000000000000000000000010010 .
1#1
1/
#186
0#&
0"F
0\
0]
0#1
0/
#191
b00000000000000000000000000010011 #
1#&
1"F
b00000000000010011 ;
1\
1]
b00000000000000000000000000010011 .
1#1
1/
#196
0#&
0"F
0\
0]
0#1
0/
#201
b00000000000000000000000000010100 #
1#&
1"F
b00000000000010100 ;
1\
1]
b00000000000000000000000000010100 .
1#1
1/
#206
0#&
0"F
0\
0]
0#1
0/
#211
b1011100 ""
b1101 !
b00000000000000000000000000010101 #
1#&
1"F
b00000000000000000000000000010101 .
1#1
1/
b01 #4
b1011100 t
b01110 "v
b00000000000000000 ;
b1101 "]
1\
1]
#216
0#&
0"F
0\
0]
0#1
0/
#221
b00000000000000000000000000010110 #
1#&
1"F
b00000000000000001 ;
1\
1]
b00000000000000000000000000010110 .
1#1
1/
#226
0#&
0"F
0\
0]
0#1
0/
#231
b00000000000000000000000000010111 #
1#&
1"F
b00000000000000010 ;
1\
1]
b00000000000000000000000000010111 .
1#1
1/
#236
0#&
0"F
1"V
0\
0]
0#1
0/
#241
b00000000000000000000000000011000 #
1#&
1"F
b00000000000000011 ;
1\
1]
1m
b00000000000000000000000000011000 .
1n
1#1
1/
#246
0#&
0"F
0\
0]
0#1
0/
#251
b00000000000000000000000000011001 #
1#&
1"E
1"F
b00000000000000000000000000011001 .
1#1
1/
1"Q
b101 "T
1"|
b00000000000000100 ;
1\
1]
#256
0#&
0"F
0\
0]
0#1
0/
#261
b00000000000000000000000000011010 #
1#&
1"F
1#)
b00000000000000000000000000011010 .
1#1
1/
0"Q
b111 "T
0"|
b00000000000000101 ;
1\
1">
1]
#266
0#&
0"F
0"V
0\
0]
0#1
0/
#271
b00000000000000000000000000011011 #
1#&
1"F
b00000000000000110 ;
1\
1]
0m
b00000000000000000000000000011011 .
0n
1#1
1/
#276
0#&
0"F
0\
0]
0#1
0/
#281
b00000000000000000000000000011100 #
1#&
0"E
1"F
0#)
b00000000000000000000000000011100 .
1#1
1/
b000 "T
b00000000000000111 ;
1\
0">
1]
#286
0#&
0"F
0\
0]
0#1
0/
#291
b00000000000000000000000000011101 #
1#&
1"F
b00000000000001000 ;
1\
1]
b00000000000000000000000000011101 .
1#1
1/
#296
0#&
0"F
0\
0]
0#1
0/
#301
b00000000000000000000000000011110 #
1#&
1"F
b00000000000001001 ;
1\
1]
b00000000000000000000000000011110 .
1#1
1/
#306
0#&
0"F
0\
0]
0#1
0/
#311
b00000000000000000000000000011111 #
1#&
1"F
b00000000000001010 ;
1\
1]
b00000000000000000000000000011111 .
1#1
1/
#316
0#&
0"F
0\
0]
0#1
0/
#321
b00000000000000000000000000100000 #
1#&
1"F
b00000000000001011 ;
1\
1]
b00000000000000000000000000100000 .
1#1
1/
#326
0#&
0"F
0\
0]
0#1
0/
#331
b00000000000000000000000000100001 #
1#&
1"F
b00000000000001100 ;
1\
1]
b00000000000000000000000000100001 .
1#1
1/
#336
0#&
0"F
0\
0]
0#1
0/
#341
b00000000000000000000000000100010 #
1#&
1"F
b00000000000001101 ;
1\
1]
b00000000000000000000000000100010 .
1#1
1/
#346
0#&
0"F
0\
0]
0#1
0/
#351
b00000000000000000000000000100011 #
1#&
1"F
b00000000000001110 ;
1\
1]
b00000000000000000000000000100011 .
1#1
1/
#356
0#&
0"F
0\
0]
0#1
0/
#361
b00000000000000000000000000100100 #
1#&
1"F
b00000000000001111 ;
1\
1]
b00000000000000000000000000100100 .
1#1
1/
#366
0\
b00000 #/
